[
    {
        "rank": 1,
        "team": {
            "id": 120,
            "name": "Botafogo",
            "logo": "https://media-2.api-sports.io/football/teams/120.png"
        },
        "points": 27,
        "goalsDiff": 12,
        "group": "Serie A",
        "form": "WWLWW",
        "status": "same",
        "description": "CONMEBOL Libertadores",
        "all": {
            "played": 11,
            "win": 9,
            "draw": 0,
            "lose": 2,
            "goals": {
                "for": 5,
                "against": 0
            }
        },
        "home": {
            "played": 6,
            "win": 6,
            "draw": 0,
            "lose": 0,
            "goals": {
                "for": 5,
                "against": 0
            }
        },
        "away": {
            "played": 5,
            "win": 3,
            "draw": 0,
            "lose": 2,
            "goals": {
                "for": 5,
                "against": 0
            }
        },
        "update": "2023-06-24T00: 00: 00+00: 00"
    },
    {
        "rank": 2,
        "team": {
            "id": 121,
            "name": "Palmeiras",
            "logo": "https://media-1.api-sports.io/football/teams/121.png"
        },
        "points": 22,
        "goalsDiff": 13,
        "group": "Serie A",
        "form": "LWWDD",
        "status": "same",
        "description": "CONMEBOL Libertadores",
        "all": {
            "played": 11,
            "win": 6,
            "draw": 4,
            "lose": 1,
            "goals": {
                "for": 5,
                "against": 0
            }
        },
        "home": {
            "played": 5,
            "win": 4,
            "draw": 1,
            "lose": 0,
            "goals": {
                "for": 5,
                "against": 0
            }
        },
        "away": {
            "played": 6,
            "win": 2,
            "draw": 3,
            "lose": 1,
            "goals": {
                "for": 5,
                "against": 0
            }
        },
        "update": "2023-06-24T00: 00: 00+00: 00"
    },
    {
        "rank": 3,
        "team": {
            "id": 130,
            "name": "Gremio",
            "logo": "https://media-1.api-sports.io/football/teams/130.png"
        },
        "points": 20,
        "goalsDiff": 1,
        "group": "Serie A",
        "form": "WLWWW",
        "status": "up",
        "description": "CONMEBOL Libertadores",
        "all": {
            "played": 11,
            "win": 6,
            "draw": 2,
            "lose": 3,
            "goals": {
                "for": 5,
                "against": 0
            }
        },
        "home": {
            "played": 6,
            "win": 4,
            "draw": 2,
            "lose": 0,
            "goals": {
                "for": 5,
                "against": 0
            }
        },
        "away": {
            "played": 5,
            "win": 2,
            "draw": 0,
            "lose": 3,
            "goals": {
                "for": 5,
                "against": 0
            }
        },
        "update": "2023-06-24T00: 00: 00+00: 00"
    },
    {
        "rank": 4,
        "team": {
            "id": 127,
            "name": "Flamengo",
            "logo": "https://media-1.api-sports.io/football/teams/127.png"
        },
        "points": 19,
        "goalsDiff": 6,
        "group": "Serie A",
        "form": "LWWDW",
        "status": "down",
        "description": "CONMEBOL Libertadores",
        "all": {
            "played": 11,
            "win": 6,
            "draw": 1,
            "lose": 4,
            "goals": {
                "for": 5,
                "against": 0
            }
        },
        "home": {
            "played": 6,
            "win": 4,
            "draw": 1,
            "lose": 1,
            "goals": {
                "for": 5,
                "against": 0
            }
        },
        "away": {
            "played": 5,
            "win": 2,
            "draw": 0,
            "lose": 3,
            "goals": {
                "for": 5,
                "against": 0
            }
        },
        "update": "2023-06-24T00: 00: 00+00: 00"
    },
    {
        "rank": 5,
        "team": {
            "id": 1062,
            "name": "Atletico-MG",
            "logo": "https://media-1.api-sports.io/football/teams/1062.png"
        },
        "points": 19,
        "goalsDiff": 6,
        "group": "Serie A",
        "form": "DDWDW",
        "status": "down",
        "description": "CONMEBOL Libertadores Qualifiers",
        "all": {
            "played": 11,
            "win": 5,
            "draw": 4,
            "lose": 2,
            "goals": {
                "for": 5,
                "against": 0
            }
        },
        "home": {
            "played": 5,
            "win": 2,
            "draw": 2,
            "lose": 1,
            "goals": {
                "for": 5,
                "against": 0
            }
        },
        "away": {
            "played": 6,
            "win": 3,
            "draw": 2,
            "lose": 1,
            "goals": {
                "for": 5,
                "against": 0
            }
        },
        "update": "2023-06-24T00: 00: 00+00: 00"
    },
    {
        "rank": 6,
        "team": {
            "id": 124,
            "name": "Fluminense",
            "logo": "https://media-2.api-sports.io/football/teams/124.png"
        },
        "points": 18,
        "goalsDiff": 5,
        "group": "Serie A",
        "form": "DDWLL",
        "status": "down",
        "description": "CONMEBOL Libertadores Qualifiers",
        "all": {
            "played": 11,
            "win": 5,
            "draw": 3,
            "lose": 3,
            "goals": {
                "for": 5,
                "against": 0
            }
        },
        "home": {
            "played": 5,
            "win": 3,
            "draw": 2,
            "lose": 0,
            "goals": {
                "for": 5,
                "against": 0
            }
        },
        "away": {
            "played": 6,
            "win": 2,
            "draw": 1,
            "lose": 3,
            "goals": {
                "for": 5,
                "against": 0
            }
        },
        "update": "2023-06-24T00: 00: 00+00: 00"
    },
    {
        "rank": 7,
        "team": {
            "id": 126,
            "name": "Sao Paulo",
            "logo": "https://media-2.api-sports.io/football/teams/126.png"
        },
        "points": 18,
        "goalsDiff": 5,
        "group": "Serie A",
        "form": "WLLWW",
        "status": "up",
        "description": "CONMEBOL Sudamericana",
        "all": {
            "played": 11,
            "win": 5,
            "draw": 3,
            "lose": 3,
            "goals": {
                "for": 5,
                "against": 0
            }
        },
        "home": {
            "played": 6,
            "win": 5,
            "draw": 0,
            "lose": 1,
            "goals": {
                "for": 5,
                "against": 0
            }
        },
        "away": {
            "played": 5,
            "win": 0,
            "draw": 3,
            "lose": 2,
            "goals": {
                "for": 5,
                "against": 0
            }
        },
        "update": "2023-06-24T00: 00: 00+00: 00"
    },
    {
        "rank": 8,
        "team": {
            "id": 119,
            "name": "Internacional",
            "logo": "https://media-1.api-sports.io/football/teams/119.png"
        },
        "points": 17,
        "goalsDiff": -2,
        "group": "Serie A",
        "form": "WWDWL",
        "status": "up",
        "description": "CONMEBOL Sudamericana",
        "all": {
            "played": 11,
            "win": 5,
            "draw": 2,
            "lose": 4,
            "goals": {
                "for": 5,
                "against": 0
            }
        },
        "home": {
            "played": 5,
            "win": 4,
            "draw": 0,
            "lose": 1,
            "goals": {
                "for": 5,
                "against": 0
            }
        },
        "away": {
            "played": 6,
            "win": 1,
            "draw": 2,
            "lose": 3,
            "goals": {
                "for": 5,
                "against": 0
            }
        },
        "update": "2023-06-24T00: 00: 00+00: 00"
    },
    {
        "rank": 9,
        "team": {
            "id": 794,
            "name": "RB Bragantino",
            "logo": "https://media-3.api-sports.io/football/teams/794.png"
        },
        "points": 17,
        "goalsDiff": 5,
        "group": "Serie A",
        "form": "WDLWW",
        "status": "up",
        "description": "CONMEBOL Sudamericana",
        "all": {
            "played": 11,
            "win": 4,
            "draw": 5,
            "lose": 2,
            "goals": {
                "for": 5,
                "against": 0
            }
        },
        "home": {
            "played": 6,
            "win": 4,
            "draw": 1,
            "lose": 1,
            "goals": {
                "for": 5,
                "against": 0
            }
        },
        "away": {
            "played": 5,
            "win": 0,
            "draw": 4,
            "lose": 1,
            "goals": {
                "for": 5,
                "against": 0
            }
        },
        "update": "2023-06-24T00: 00: 00+00: 00"
    },
    {
        "rank": 10,
        "team": {
            "id": 154,
            "name": "Fortaleza EC",
            "logo": "https://media-3.api-sports.io/football/teams/154.png"
        },
        "points": 17,
        "goalsDiff": 5,
        "group": "Serie A",
        "form": "WLDWL",
        "status": "up",
        "description": "CONMEBOL Sudamericana",
        "all": {
            "played": 11,
            "win": 4,
            "draw": 5,
            "lose": 2,
            "goals": {
                "for": 5,
                "against": 0
            }
        },
        "home": {
            "played": 5,
            "win": 2,
            "draw": 3,
            "lose": 0,
            "goals": {
                "for": 5,
                "against": 0
            }
        },
        "away": {
            "played": 6,
            "win": 2,
            "draw": 2,
            "lose": 2,
            "goals": {
                "for": 5,
                "against": 0
            }
        },
        "update": "2023-06-24T00: 00: 00+00: 00"
    },
    {
        "rank": 11,
        "team": {
            "id": 134,
            "name": "Atletico Paranaense",
            "logo": "https://media-1.api-sports.io/football/teams/134.png"
        },
        "points": 16,
        "goalsDiff": 0,
        "group": "Serie A",
        "form": "LDWLL",
        "status": "down",
        "description": "CONMEBOL Sudamericana",
        "all": {
            "played": 11,
            "win": 5,
            "draw": 1,
            "lose": 5,
            "goals": {
                "for": 5,
                "against": 0
            }
        },
        "home": {
            "played": 5,
            "win": 4,
            "draw": 0,
            "lose": 1,
            "goals": {
                "for": 5,
                "against": 0
            }
        },
        "away": {
            "played": 6,
            "win": 1,
            "draw": 1,
            "lose": 4,
            "goals": {
                "for": 5,
                "against": 0
            }
        },
        "update": "2023-06-24T00: 00: 00+00: 00"
    },
    {
        "rank": 12,
        "team": {
            "id": 135,
            "name": "Cruzeiro",
            "logo": "https://media-3.api-sports.io/football/teams/135.png"
        },
        "points": 14,
        "goalsDiff": 3,
        "group": "Serie A",
        "form": "LDLDL",
        "status": "down",
        "description": "CONMEBOL Sudamericana",
        "all": {
            "played": 11,
            "win": 4,
            "draw": 2,
            "lose": 5,
            "goals": {
                "for": 5,
                "against": 0
            }
        },
        "home": {
            "played": 6,
            "win": 2,
            "draw": 0,
            "lose": 4,
            "goals": {
                "for": 5,
                "against": 0
            }
        },
        "away": {
            "played": 5,
            "win": 2,
            "draw": 2,
            "lose": 1,
            "goals": {
                "for": 5,
                "against": 0
            }
        },
        "update": "2023-06-24T00: 00: 00+00: 00"
    },
    {
        "rank": 13,
        "team": {
            "id": 128,
            "name": "Santos",
            "logo": "https://media-1.api-sports.io/football/teams/128.png"
        },
        "points": 13,
        "goalsDiff": -1,
        "group": "Serie A",
        "form": "LDDLD",
        "status": "same",
        "description": null,
        "all": {
            "played": 11,
            "win": 3,
            "draw": 4,
            "lose": 4,
            "goals": {
                "for": 5,
                "against": 0
            }
        },
        "home": {
            "played": 6,
            "win": 2,
            "draw": 3,
            "lose": 1,
            "goals": {
                "for": 5,
                "against": 0
            }
        },
        "away": {
            "played": 5,
            "win": 1,
            "draw": 1,
            "lose": 3,
            "goals": {
                "for": 5,
                "against": 0
            }
        },
        "update": "2023-06-24T00: 00: 00+00: 00"
    },
    {
        "rank": 14,
        "team": {
            "id": 118,
            "name": "Bahia",
            "logo": "https://media-2.api-sports.io/football/teams/118.png"
        },
        "points": 12,
        "goalsDiff": -4,
        "group": "Serie A",
        "form": "WDDLD",
        "status": "up",
        "description": null,
        "all": {
            "played": 11,
            "win": 3,
            "draw": 3,
            "lose": 5,
            "goals": {
                "for": 5,
                "against": 0
            }
        },
        "home": {
            "played": 6,
            "win": 2,
            "draw": 2,
            "lose": 2,
            "goals": {
                "for": 5,
                "against": 0
            }
        },
        "away": {
            "played": 5,
            "win": 1,
            "draw": 1,
            "lose": 3,
            "goals": {
                "for": 5,
                "against": 0
            }
        },
        "update": "2023-06-24T00: 00: 00+00: 00"
    },
    {
        "rank": 15,
        "team": {
            "id": 131,
            "name": "Corinthians",
            "logo": "https://media-1.api-sports.io/football/teams/131.png"
        },
        "points": 12,
        "goalsDiff": -4,
        "group": "Serie A",
        "form": "WDLWL",
        "status": "up",
        "description": null,
        "all": {
            "played": 11,
            "win": 3,
            "draw": 3,
            "lose": 5,
            "goals": {
                "for": 5,
                "against": 0
            }
        },
        "home": {
            "played": 5,
            "win": 2,
            "draw": 3,
            "lose": 0,
            "goals": {
                "for": 5,
                "against": 0
            }
        },
        "away": {
            "played": 6,
            "win": 1,
            "draw": 0,
            "lose": 5,
            "goals": {
                "for": 5,
                "against": 0
            }
        },
        "update": "2023-06-24T00: 00: 00+00: 00"
    },
    {
        "rank": 16,
        "team": {
            "id": 1193,
            "name": "Cuiaba",
            "logo": "https://media-2.api-sports.io/football/teams/1193.png"
        },
        "points": 12,
        "goalsDiff": -6,
        "group": "Serie A",
        "form": "LDWDW",
        "status": "down",
        "description": null,
        "all": {
            "played": 11,
            "win": 3,
            "draw": 3,
            "lose": 5,
            "goals": {
                "for": 5,
                "against": 0
            }
        },
        "home": {
            "played": 5,
            "win": 0,
            "draw": 2,
            "lose": 3,
            "goals": {
                "for": 5,
                "against": 0
            }
        },
        "away": {
            "played": 6,
            "win": 3,
            "draw": 1,
            "lose": 2,
            "goals": {
                "for": 5,
                "against": 0
            }
        },
        "update": "2023-06-24T00: 00: 00+00: 00"
    },
    {
        "rank": 17,
        "team": {
            "id": 151,
            "name": "Goias",
            "logo": "https://media-2.api-sports.io/football/teams/151.png"
        },
        "points": 11,
        "goalsDiff": -8,
        "group": "Serie A",
        "form": "WDLLD",
        "status": "same",
        "description": "Relegation",
        "all": {
            "played": 11,
            "win": 3,
            "draw": 2,
            "lose": 6,
            "goals": {
                "for": 5,
                "against": 0
            }
        },
        "home": {
            "played": 5,
            "win": 2,
            "draw": 1,
            "lose": 2,
            "goals": {
                "for": 5,
                "against": 0
            }
        },
        "away": {
            "played": 6,
            "win": 1,
            "draw": 1,
            "lose": 4,
            "goals": {
                "for": 5,
                "against": 0
            }
        },
        "update": "2023-06-24T00: 00: 00+00: 00"
    },
    {
        "rank": 18,
        "team": {
            "id": 125,
            "name": "America Mineiro",
            "logo": "https://media-3.api-sports.io/football/teams/125.png"
        },
        "points": 8,
        "goalsDiff": -13,
        "group": "Serie A",
        "form": "LDWLW",
        "status": "same",
        "description": "Relegation",
        "all": {
            "played": 11,
            "win": 2,
            "draw": 2,
            "lose": 7,
            "goals": {
                "for": 5,
                "against": 0
            }
        },
        "home": {
            "played": 6,
            "win": 2,
            "draw": 1,
            "lose": 3,
            "goals": {
                "for": 5,
                "against": 0
            }
        },
        "away": {
            "played": 5,
            "win": 0,
            "draw": 1,
            "lose": 4,
            "goals": {
                "for": 5,
                "against": 0
            }
        },
        "update": "2023-06-24T00: 00: 00+00: 00"
    },
    {
        "rank": 19,
        "team": {
            "id": 133,
            "name": "Vasco DA Gama",
            "logo": "https://media-3.api-sports.io/football/teams/133.png"
        },
        "points": 6,
        "goalsDiff": -10,
        "group": "Serie A",
        "form": "LLLLL",
        "status": "same",
        "description": "Relegation",
        "all": {
            "played": 11,
            "win": 1,
            "draw": 3,
            "lose": 7,
            "goals": {
                "for": 5,
                "against": 0
            }
        },
        "home": {
            "played": 5,
            "win": 0,
            "draw": 1,
            "lose": 4,
            "goals": {
                "for": 5,
                "against": 0
            }
        },
        "away": {
            "played": 6,
            "win": 1,
            "draw": 2,
            "lose": 3,
            "goals": {
                "for": 5,
                "against": 0
            }
        },
        "update": "2023-06-24T00: 00: 00+00: 00"
    },
    {
        "rank": 20,
        "team": {
            "id": 147,
            "name": "Coritiba",
            "logo": "https://media-3.api-sports.io/football/teams/147.png"
        },
        "points": 4,
        "goalsDiff": -13,
        "group": "Serie A",
        "form": "LDLDL",
        "status": "same",
        "description": "Relegation",
        "all": {
            "played": 11,
            "win": 0,
            "draw": 4,
            "lose": 7,
            "goals": {
                "for": 5,
                "against": 0
            }
        },
        "home": {
            "played": 6,
            "win": 0,
            "draw": 3,
            "lose": 3,
            "goals": {
                "for": 5,
                "against": 0
            }
        },
        "away": {
            "played": 5,
            "win": 0,
            "draw": 1,
            "lose": 4,
            "goals": {
                "for": 5,
                "against": 0
            }
        },
        "update": "2023-06-24T00: 00: 00+00: 00"
    }
]