[
    {
        "team": {
            "id": 118,
            "name": "Bahia",
            "code": "BAH",
            "country": "Brazil",
            "founded": 1931,
            "national": false,
            "logo": "https://media-2.api-sports.io/football/teams/118.png"
        },
        "venue": {
            "id": 216,
            "name": "Arena Fonte Nova",
            "address": "Rua Lions Club, Nazaré",
            "city": "Salvador, Bahia",
            "capacity": 56500,
            "surface": "grass",
            "image": "https://media-1.api-sports.io/football/venues/216.png"
        }
    },
    {
        "team": {
            "id": 119,
            "name": "Internacional",
            "code": "INT",
            "country": "Brazil",
            "founded": 1909,
            "national": false,
            "logo": "https://media-3.api-sports.io/football/teams/119.png"
        },
        "venue": {
            "id": 244,
            "name": "Estádio José Pinheiro Borda",
            "address": "Avenida Padre Cacique 891, Bairro Menino Deus",
            "city": "Porto Alegre, Rio Grande do Sul",
            "capacity": 50128,
            "surface": "grass",
            "image": "https://media-3.api-sports.io/football/venues/244.png"
        }
    },
    {
        "team": {
            "id": 120,
            "name": "Botafogo",
            "code": "BOT",
            "country": "Brazil",
            "founded": 1904,
            "national": false,
            "logo": "https://media-2.api-sports.io/football/teams/120.png"
        },
        "venue": {
            "id": 218,
            "name": "Estádio Nilton Santos",
            "address": "Rua Arquias Cordeiro, Engenho de Dentro",
            "city": "Rio de Janeiro",
            "capacity": 46931,
            "surface": "grass",
            "image": "https://media-1.api-sports.io/football/venues/218.png"
        }
    },
    {
        "team": {
            "id": 121,
            "name": "Palmeiras",
            "code": "PAL",
            "country": "Brazil",
            "founded": 1914,
            "national": false,
            "logo": "https://media-3.api-sports.io/football/teams/121.png"
        },
        "venue": {
            "id": 258,
            "name": "Allianz Parque",
            "address": "Rua Turiaçu 1840, Perdizes",
            "city": "São Paulo, São Paulo",
            "capacity": 43713,
            "surface": "grass",
            "image": "https://media-3.api-sports.io/football/venues/258.png"
        }
    },
    {
        "team": {
            "id": 124,
            "name": "Fluminense",
            "code": "FLU",
            "country": "Brazil",
            "founded": 1902,
            "national": false,
            "logo": "https://media-1.api-sports.io/football/teams/124.png"
        },
        "venue": {
            "id": 204,
            "name": "Estadio Jornalista Mário Filho (Maracanã)",
            "address": "Rua Professor Eurico Rabelo, Maracanã",
            "city": "Rio de Janeiro, Rio de Janeiro",
            "capacity": 78838,
            "surface": "grass",
            "image": "https://media-1.api-sports.io/football/venues/204.png"
        }
    },
    {
        "team": {
            "id": 125,
            "name": "America Mineiro",
            "code": "AME",
            "country": "Brazil",
            "founded": 1912,
            "national": false,
            "logo": "https://media-2.api-sports.io/football/teams/125.png"
        },
        "venue": {
            "id": 206,
            "name": "Estádio Raimundo Sampaio",
            "address": "Avenida Ismênia Tunes, Bairro Horto",
            "city": "Belo Horizonte, Minas Gerais",
            "capacity": 23018,
            "surface": "grass",
            "image": "https://media-1.api-sports.io/football/venues/206.png"
        }
    },
    {
        "team": {
            "id": 126,
            "name": "Sao Paulo",
            "code": "PAU",
            "country": "Brazil",
            "founded": 1930,
            "national": false,
            "logo": "https://media-2.api-sports.io/football/teams/126.png"
        },
        "venue": {
            "id": 269,
            "name": "Estádio Cícero Pompeu de Toledo (Morumbi)",
            "address": "Praca Roberto Gomes Pedrosa 1, Morumbi",
            "city": "São Paulo, São Paulo",
            "capacity": 66795,
            "surface": "grass",
            "image": "https://media-1.api-sports.io/football/venues/269.png"
        }
    },
    {
        "team": {
            "id": 127,
            "name": "Flamengo",
            "code": "FLA",
            "country": "Brazil",
            "founded": 1895,
            "national": false,
            "logo": "https://media-3.api-sports.io/football/teams/127.png"
        },
        "venue": {
            "id": 204,
            "name": "Estadio Jornalista Mário Filho (Maracanã)",
            "address": "Rua Professor Eurico Rabelo, Maracanã",
            "city": "Rio de Janeiro, Rio de Janeiro",
            "capacity": 78838,
            "surface": "grass",
            "image": "https://media-2.api-sports.io/football/venues/204.png"
        }
    },
    {
        "team": {
            "id": 128,
            "name": "Santos",
            "code": "SAN",
            "country": "Brazil",
            "founded": 1912,
            "national": false,
            "logo": "https://media-2.api-sports.io/football/teams/128.png"
        },
        "venue": {
            "id": 10494,
            "name": "Estádio Urbano Caldeira",
            "address": "Rue Princesa Isabel 77, Vila Belmiro",
            "city": "Santos, São Paulo",
            "capacity": 21256,
            "surface": "grass",
            "image": "https://media-2.api-sports.io/football/venues/10494.png"
        }
    },
    {
        "team": {
            "id": 130,
            "name": "Gremio",
            "code": "GRE",
            "country": "Brazil",
            "founded": 1903,
            "national": false,
            "logo": "https://media-2.api-sports.io/football/teams/130.png"
        },
        "venue": {
            "id": 241,
            "name": "Arena do Grêmio",
            "address": "Bairro Humaitá",
            "city": "Porto Alegre, Rio Grande do Sul",
            "capacity": 60540,
            "surface": "grass",
            "image": "https://media-2.api-sports.io/football/venues/241.png"
        }
    },
    {
        "team": {
            "id": 131,
            "name": "Corinthians",
            "code": "COR",
            "country": "Brazil",
            "founded": 1910,
            "national": false,
            "logo": "https://media-2.api-sports.io/football/teams/131.png"
        },
        "venue": {
            "id": 11531,
            "name": "Neo Química Arena",
            "address": "Avenida Miguel Inácio Curi,111, Vila Carmosina, Itaquera","city": "São Paulo, São Paulo",
            "capacity": 49205,
            "surface": "grass",
            "image": "https://media-3.api-sports.io/football/venues/11531.png"
        }
    },
    {
        "team": {
            "id": 133,
            "name": "Vasco DA Gama",
            "code": "VAS",
            "country": "Brazil",
            "founded": 1898,
            "national": false,
            "logo": "https://media-1.api-sports.io/football/teams/133.png"
        },
        "venue": {
            "id": 19377,
            "name": "Estádio São Januário",
            "address": "Rua Gal Almério de Moura 131, Bairro Vasco da Gama",
            "city": "Rio de Janeiro, Rio de Janeiro",
            "capacity": 24584,
            "surface": "grass",
            "image": "https://media-1.api-sports.io/football/venues/19377.png"
        }
    },
    {
        "team": {
            "id": 134,
            "name": "Atletico Paranaense",
            "code": "ATL",
            "country": "Brazil",
            "founded": 1924,
            "national": false,
            "logo": "https://media-2.api-sports.io/football/teams/134.png"
        },
        "venue": {
            "id": 10493,
            "name": "Arena da Baixada",
            "address": "Rua Buenos Aires 1260, Água Verde",
            "city": "Curitiba, Paraná",
            "capacity": 43981,
            "surface": "grass",
            "image": "https://media-3.api-sports.io/football/venues/10493.png"
        }
    },
    {
        "team": {
            "id": 135,
            "name": "Cruzeiro",
            "code": "CRU",
            "country": "Brazil",
            "founded": 1921,
            "national": false,
            "logo": "https://media-3.api-sports.io/football/teams/135.png"
        },
        "venue": {
            "id": 234,
            "name": "Estádio Governador Magalhães Pinto",
            "address": "Avenida Antonio Abrahão Carã 1001, Pampulhas",
            "city": "Belo Horizonte, Minas Gerais",
            "capacity": 62170,
            "surface": "grass",
            "image": "https://media-1.api-sports.io/football/venues/234.png"
        }
    },
    {
        "team": {
            "id": 147,
            "name": "Coritiba",
            "code": "COR",
            "country": "Brazil",
            "founded": 1909,
            "national": false,
            "logo": "https://media-2.api-sports.io/football/teams/147.png"
        },
        "venue": {
            "id": 230,
            "name": "Estádio Major Antônio Couto Pereira",
            "address": "Rua Ubaldino do Amaral 37, Bairro Alto da Glória",
            "city": "Curitiba, Paraná",
            "capacity": 45563,
            "surface": "grass",
            "image": "https://media-1.api-sports.io/football/venues/230.png"
        }
    },
    {
        "team": {
            "id": 151,
            "name": "Goias",
            "code": "GOI",
            "country": "Brazil",
            "founded": 1943,
            "national": false,
            "logo": "https://media-3.api-sports.io/football/teams/151.png"
        },
        "venue": {
            "id": 240,
            "name": "Estádio de Hailé Pinheiro",
            "address": "Avenida Edmundo Pinheiro de Abreu 721, Setor Bela Vista",
            "city": "Goiânia, Goiás",
            "capacity": 14525,
            "surface": "grass",
            "image": "https://media-2.api-sports.io/football/venues/240.png"
        }
    },
    {
        "team": {
            "id": 154,
            "name": "Fortaleza EC",
            "code": "FOR",
            "country": "Brazil",
            "founded": 1918,
            "national": false,
            "logo": "https://media-2.api-sports.io/football/teams/154.png"
        },
        "venue": {
            "id": 225,
            "name": "Estádio Governador Plácido Aderaldo Castelo",
            "address": "Avenida Alberto Craveiro, Passaré",
            "city": "Fortaleza, Ceará",
            "capacity": 63903,
            "surface": "grass",
            "image": "https://media-1.api-sports.io/football/venues/225.png"
        }
    },
    {
        "team": {
            "id": 794,
            "name": "RB Bragantino",
            "code": "BRA",
            "country": "Brazil",
            "founded": 1928,
            "national": false,
            "logo": "https://media-2.api-sports.io/football/teams/794.png"
        },
        "venue": {
            "id": 220,
            "name": "Estádio Nabi Abi Chedid",
            "address": "Rua Emílio Coleta",
            "city": "Bragança Paulista, São Paulo",
            "capacity": 17128,
            "surface": "grass",
            "image": "https://media-2.api-sports.io/football/venues/220.png"
        }
    },
    {
        "team": {
            "id": 1062,
            "name": "Atletico-MG",
            "code": "ATL",
            "country": "Brazil",
            "founded": 1908,
            "national": false,
            "logo": "https://media-2.api-sports.io/football/teams/1062.png"
        },
        "venue": {
            "id": 206,
            "name": "Estádio Raimundo Sampaio",
            "address": "Avenida Ismênia Tunes, Bairro Horto",
            "city": "Belo Horizonte, Minas Gerais",
            "capacity": 23018,
            "surface": "grass",
            "image": "https://media-1.api-sports.io/football/venues/206.png"
        }
    },
    {
        "team": {
            "id": 1193,
            "name": "Cuiaba",
            "code": "CUI",
            "country": "Brazil",
            "founded": 2001,
            "national": false,
            "logo": "https://media-3.api-sports.io/football/teams/1193.png"
        },
        "venue": {
            "id": 235,
            "name": "Arena Pantanal",
            "address": null,
            "city": "Cuiabá, Mato Grosso",
            "capacity": 44003,
            "surface": "grass",
            "image": "https://media-3.api-sports.io/football/venues/235.png"
        }
    }
]