{
    "comment1": "-----------------> Success <----------------",
    "200-000": "Success",
    "200-404": "Success, but no data response",
    "200-001": "Success listining leagues",
    "200-002": "Success getting league",
    "200-003": "Success listining countries",
    "200-004": "Success getting country",
    "200-005": "Success listining seasons",
    "200-006": "Success getting season",
    "200-007": "Success listining teams",
    "200-008": "Success getting team",
    "200-009": "Success listining players",
    "200-010": "Success getting player",
    "200-011": "Success listining rankings",
    "200-012": "Success getting ranking",
    "200-013": "Success listining rounds",
    "200-014": "Success getting round",
    "200-015": "Success listining games",
    "200-016": "Success getting game",
    "200-017": "Success getting statistic game",
    "200-018": "User authenticated successfully",
    "200-019": "Success listining users",
    "200-020": "Success finding user",
    "200-021": "User update successfully",
    "200-022": "Success listining gunners",
    "200-023": "Success listining polls",
    "200-024": "Success getting poll",
    "200-025": "Success sending contact",
    "comment2": "-----------------> Create <-----------------",
    "201-000": "Created successfully",
    "201-001": "League created successfully",
    "201-002": "Country created successfully",
    "201-003": "Season created successfully",
    "201-004": "Teams created successfully",
    "201-005": "Players created successfully",
    "201-006": "Ranking created successfully",
    "201-007": "Rounds created successfully",
    "201-008": "Games created successfully",
    "201-009": "Statistic game created successfully",
    "201-010": "User created successfully",
    "201-011": "Gunners created successfully",
    "201-012": "Poll created successfully",
    "comment3": "------------> Update and Delet <------------",
    "202-000": "Updated successfully",
    "202-001": "League updated successfully",
    "202-002": "League removed successfully",
    "202-003": "Country updated successfully",
    "202-004": "Country removed successfully",
    "202-005": "Season updated successfully",
    "202-006": "Season removed successfully",
    "202-007": "Team updated successfully",
    "202-008": "Team removed successfully",
    "202-009": "Players updated successfully",
    "202-010": "Players removed successfully",
    "202-011": "Ranking updated successfully",
    "202-012": "Ranking removed successfully",
    "202-013": "Rounds updated successfully",
    "202-014": "Rounds removed successfully",
    "202-015": "Games updated successfully",
    "202-016": "Games removed successfully",
    "202-017": "Statistic game updated successfully",
    "202-018": "Statistic games removed successfully",
    "comment4": "---------------> User Errors <--------------",
    "400-000": "Invalid request",
    "400-001": "League id not found / invalid!",
    "400-002": "Year not found / invalid!",
    "400-003": "Invalid document",
    "400-004": "Invalid password",
    "400-005": "Invalid phone number",
    "400-006": "Invalid mail address",
    "400-007": "Invalid full name",
    "400-008": "Invalid password",
    "401-000": "Invalid or unauthorized Username/Password",
    "401-001": "Expired access",
    "404-000": "Not found",
    "404-001": "User not found",
    "404-002": "Poll not found",
    "409-000": "Already registered.",
    "410-000": "Expired.",
    "comment5": "-------------> Internal Errors <------------",
    "500-000": "There is an internal error",
    "500-001": "Connection error to MeuBolao database",
    "500-002": "Connection error to Championship database",
    "500-003": "Disconnection error to databases",
    "500-004": "Error getting data from external API",
    "500-005": "Error listining leagues",
    "500-006": "Error finding league",
    "500-007": "Error creating league",
    "500-008": "Error deleting leagues",
    "500-009": "Error listining countries",
    "500-010": "Error finding country",
    "500-011": "Error creating country",
    "500-012": "Error deleting countries",
    "500-013": "Error listining seasons",
    "500-014": "Error finding season",
    "500-015": "Error creating season",
    "500-016": "Error deleting seasons",
    "500-017": "Error listining teams",
    "500-018": "Error finding team",
    "500-019": "Error creating team",
    "500-020": "Error deleting teams",
    "500-021": "Error listining players",
    "500-022": "Error finding player",
    "500-023": "Error creating player",
    "500-024": "Error deleting players",
    "500-025": "Error listining ranking",
    "500-026": "Error finding ranking",
    "500-027": "Error creating ranking",
    "500-028": "Error deleting ranking",
    "500-029": "Error listining rounds",
    "500-030": "Error finding round",
    "500-031": "Error creating round",
    "500-032": "Error updating rounds",
    "500-033": "Error deleting rounds",
    "500-034": "Error listining games",
    "500-035": "Error finding game",
    "500-036": "Error creating game",
    "500-037": "Error updating games",
    "500-038": "Error deleting games",
    "500-039": "Error finding statistic game",
    "500-040": "Error creating statistic game",
    "500-041": "Error updating statistic game",
    "500-042": "Error deleting statistic game",
    "500-043": "Error creating user",
    "500-044": "Error generating verify code",
    "500-045": "Error validating user",
    "500-046": "Error listining users",
    "500-047": "Error getting user",
    "500-048": "Error updating user",
    "500-049": "Error listining gunners",
    "500-050": "Error creating gunner",
    "500-051": "Error creating poll",
    "500-052": "Error finding poll",
    "500-053": "Error listining polls",
    "500-054": "Error getting e-mail template",
    "500-055": "Error sending e-mail",
    "comment6": "-------------> General Errors <-------------",
    "900-000": "General Error"
}